<?xml version="1.0" standalone="no"?>
<!DOCTYPE svg PUBLIC "-//W3C//DTD SVG 20010904//EN"
  "http://www.w3.org/TR/2001/REC-SVG-20010904/DTD/svg10.dtd">
<svg height="512.000000pt" preserveAspectRatio="xMidYMid meet"
     version="1.0" viewBox="0 0 512.000000 512.000000" width="512.000000pt"
     xmlns="http://www.w3.org/2000/svg">
  <metadata>
    Created by potrace 1.11, written by Peter Selinger 2001-2013
  </metadata>
  <g fill="#000000"
     stroke="none" transform="translate(0.000000,512.000000) scale(0.100000,-0.100000)">
    <path d="M1570 4302 c-39 -5 -130 -41 -164 -64 -124 -86 -186 -241 -163 -408
7 -47 31 -135 40 -148 14 -18 5 -24 -74 -44 -80 -20 -176 -70 -230 -120 -64
-60 -140 -184 -174 -283 -25 -74 -27 -83 -31 -172 -9 -212 116 -373 321 -412
116 -22 278 9 394 75 108 62 244 182 328 289 l31 40 13 -43 c29 -97 126 -163
242 -163 34 0 72 2 85 5 40 9 136 65 182 106 25 22 47 40 50 40 3 -1 14 -19
25 -42 11 -23 37 -56 58 -72 35 -28 46 -31 110 -31 51 0 84 6 112 19 52 26
163 140 196 202 14 27 43 80 64 118 21 38 43 79 49 90 6 12 28 47 49 79 20 31
37 61 37 65 1 12 69 118 71 107 6 -67 37 -130 118 -244 37 -53 76 -111 85
-130 19 -37 23 -102 8 -141 -29 -76 -165 -115 -239 -70 -31 19 -35 26 -37 85
-1 15 -15 24 -59 38 -32 11 -61 17 -63 14 -3 -2 -5 -29 -5 -60 -2 -109 57
-181 172 -211 132 -33 276 18 417 149 l71 66 16 -34 c42 -89 125 -141 227
-142 38 0 68 -2 68 -4 0 -4 -159 -289 -187 -336 -7 -11 -15 -27 -19 -35 -12
-25 -64 -99 -87 -123 -51 -55 -118 -81 -170 -66 -57 15 -78 81 -43 134 45 67
88 86 214 94 6 1 12 5 12 11 0 5 13 32 30 60 33 56 38 52 -67 51 -113 -1 -193
-30 -254 -90 -79 -79 -100 -209 -46 -289 15 -23 46 -54 70 -69 59 -38 159 -39
232 -3 107 54 138 98 440 631 154 272 330 583 392 692 62 109 113 201 113 205
0 8 -86 62 -99 62 -4 0 -14 -12 -22 -27 -8 -16 -30 -57 -50 -93 -20 -36 -52
-94 -71 -130 -202 -376 -283 -492 -379 -541 -105 -53 -211 17 -205 136 3 58
16 84 177 372 66 116 119 215 119 220 0 8 -100 67 -105 61 -10 -12 -285 -497
-285 -502 0 -4 -30 -48 -67 -98 l-68 -90 -11 48 c-14 65 -34 101 -114 214
-107 150 -123 197 -93 270 17 43 38 60 74 60 23 0 29 6 43 47 23 66 21 80 -11
86 -109 21 -235 -43 -329 -168 -46 -61 -125 -207 -120 -221 3 -8 0 -11 -8 -8
-7 3 -16 -3 -20 -13 -3 -10 -12 -27 -19 -38 -6 -12 -43 -77 -82 -145 -79 -144
-149 -221 -214 -241 -49 -15 -87 0 -103 41 -13 33 -3 117 21 177 17 43 36 79
136 258 16 28 37 66 48 85 10 19 37 65 58 102 22 36 39 70 39 75 0 8 -85 63
-98 63 -4 0 -25 -32 -47 -71 l-40 -70 -15 33 c-70 151 -288 190 -455 81 -101
-66 -211 -205 -274 -346 -147 -329 -426 -600 -649 -633 -174 -25 -288 25 -349
153 -50 108 -17 270 88 424 44 65 97 110 164 140 62 28 78 31 170 36 l81 5 21
55 c19 47 20 55 7 60 -31 12 -81 157 -85 248 -4 85 28 164 90 217 73 63 195
88 271 55 l35 -14 -30 -8 c-106 -26 -185 -116 -185 -209 0 -111 94 -204 191
-190 116 18 224 144 228 269 1 20 6 20 1413 20 l1412 0 38 59 c21 33 36 61 34
64 -3 2 -664 4 -1470 4 l-1465 0 -31 39 c-67 84 -180 120 -320 101z m263 -296
c-5 -45 -46 -102 -90 -125 -50 -26 -100 30 -75 84 12 26 58 54 107 65 53 12
62 9 58 -24z m647 -341 c49 -26 65 -59 67 -149 l2 -81 -74 -129 c-107 -184
-176 -265 -263 -306 -95 -45 -185 -33 -217 30 -75 144 73 489 263 615 69 46
157 54 222 20z"/>
    <path d="M2457 2688 c-8 -13 -49 -85 -92 -160 l-77 -138 -124 0 -124 0 0 -67
0 -68 85 1 c47 1 85 0 85 -2 0 -3 -140 -250 -161 -284 -5 -8 -43 -76 -85 -150
-42 -74 -91 -157 -109 -185 -17 -27 -56 -95 -85 -150 -85 -161 -127 -216 -190
-254 -83 -50 -202 -2 -211 84 -1 11 1 46 6 78 6 49 29 96 150 307 l143 250
-55 31 c-30 17 -55 30 -57 28 -2 -2 -61 -105 -132 -229 -165 -290 -177 -319
-178 -435 -1 -80 2 -95 26 -135 40 -68 88 -102 163 -116 62 -11 77 -11 129 4
62 17 110 47 162 102 41 42 42 42 49 19 9 -30 61 -86 99 -106 120 -63 248 -38
355 69 28 29 52 50 53 47 2 -2 10 -17 19 -34 23 -41 91 -92 142 -106 60 -16
144 -7 201 21 60 31 151 116 183 174 8 15 14 9 37 -38 27 -56 81 -108 143
-140 74 -37 216 -35 318 6 151 60 264 192 430 503 78 146 147 265 155 265 5 0
11 -9 15 -20 3 -10 26 -39 51 -63 l45 -45 -31 -53 c-17 -30 -35 -61 -40 -69
-17 -27 -82 -164 -85 -181 -2 -9 -8 -33 -13 -53 -14 -49 -8 -153 10 -196 16
-39 66 -86 107 -102 83 -32 203 5 283 88 56 58 75 86 149 219 100 178 108 194
101 199 -4 2 -28 16 -54 30 l-47 26 -24 -42 c-13 -24 -52 -96 -87 -160 -98
-183 -199 -271 -275 -236 -49 22 -56 100 -19 210 9 28 58 123 109 211 l92 162
-36 24 c-119 78 -156 155 -125 259 8 25 14 48 14 51 0 8 -100 64 -105 59 -18
-17 -303 -533 -299 -539 3 -5 1 -9 -5 -9 -6 0 -13 -11 -17 -25 -3 -14 -10 -25
-15 -25 -5 0 -9 -5 -9 -11 0 -12 -72 -137 -109 -189 -47 -67 -124 -132 -190
-163 -112 -53 -245 -44 -303 20 -45 50 -58 126 -37 223 9 42 14 50 27 44 104
-43 121 -47 197 -47 64 0 91 5 135 26 197 91 256 328 116 468 -100 101 -227
94 -348 -19 -58 -54 -138 -184 -343 -556 -70 -127 -161 -202 -231 -190 -48 8
-98 37 -111 64 -18 35 -15 106 5 165 10 28 93 183 186 345 202 354 195 340
236 415 19 33 35 62 37 65 2 2 52 5 111 5 l107 0 1 60 0 60 -72 5 -72 5 74
129 c41 71 73 130 72 131 -27 22 -93 55 -102 52 -7 -3 -19 -18 -27 -34 -43
-85 -154 -276 -164 -279 -6 -3 -90 -3 -188 -2 l-177 3 74 130 74 130 -46 27
c-57 34 -58 34 -75 6z m186 -430 c42 0 77 -4 77 -8 0 -9 -292 -520 -349 -610
-26 -41 -72 -120 -100 -175 -119 -225 -215 -298 -323 -243 -49 24 -70 57 -70
111 0 72 20 125 103 271 43 76 79 143 79 147 0 5 5 9 10 9 6 0 10 4 10 9 0 5
40 78 88 162 48 85 91 161 95 169 4 8 13 24 20 35 7 11 25 43 41 70 16 28 33
53 38 56 5 3 53 4 106 2 53 -2 132 -4 175 -5z m703 -379 c29 -27 47 -79 40
-119 -14 -91 -127 -173 -227 -164 -37 3 -129 39 -129 50 0 14 102 174 130 204
64 69 132 79 186 29z"/>
    <path d="M1070 2563 c-183 -62 -296 -242 -285 -453 5 -89 36 -183 108 -325 96
-192 127 -304 121 -437 -3 -93 -7 -107 -41 -169 -68 -127 -246 -219 -398 -206
-115 9 -195 78 -229 197 -50 178 45 353 224 410 34 11 69 20 77 20 12 0 14 11
9 58 -3 31 -5 60 -6 64 0 11 -134 -24 -190 -51 -106 -50 -210 -182 -236 -296
-12 -58 -11 -169 3 -224 72 -274 329 -380 615 -253 150 66 257 191 292 343 15
62 15 202 1 278 -14 71 -58 187 -119 314 -85 177 -95 206 -100 304 -9 164 117
322 245 307 137 -15 190 -72 185 -200 -3 -80 -20 -120 -78 -174 l-39 -38 25
-50 c31 -61 46 -60 110 8 121 129 145 325 56 448 -36 50 -99 98 -149 113 -39
12 -177 20 -201 12z"/>
    <path d="M1663 2218 c-12 -6 -27 -23 -33 -39 -37 -88 68 -158 135 -92 23 24
26 34 22 68 -9 64 -64 92 -124 63z"/>
  </g>
</svg>
