<svg width="43" height="48" viewBox="0 0 43 48" fill="none" xmlns="http://www.w3.org/2000/svg">
  <path fill-rule="evenodd" clip-rule="evenodd"
        d="M38.7726 23.708C41.1169 24.1302 42.907 26.1708 42.907 28.6195C42.907 31.1668 40.989 33.2637 38.5169 33.5733C37.9202 37.0353 36.2579 40.2159 33.7005 42.749C30.4327 45.9859 26.0852 47.7732 21.4535 47.7732C16.8218 47.7732 12.4743 45.9577 9.19234 42.6646C6.67759 40.1455 5.04371 36.9931 4.41857 33.5733C1.93224 33.2637 0 31.1668 0 28.6195C0 26.1849 1.79016 24.1443 4.14863 23.6939V14.7293C3.93551 14.856 3.73661 15.0108 3.55191 15.1796C3.01202 15.6863 2.2306 15.7707 1.60546 15.3767C0.980326 14.9967 0.710381 14.2649 0.951911 13.5612L1.39235 12.2665C1.63388 11.5628 1.98907 10.9014 2.4295 10.3244C2.94098 5.63801 6.19453 2.35895 11.8918 0.796825C16.2393 -0.399397 20.8568 -0.244591 25.247 1.23309L30.9442 3.1752C32.6775 2.57005 34.5956 2.79522 36.1442 3.80849C37.7923 4.87805 38.7726 6.6935 38.7726 8.64967V23.708ZM36.9683 8.64967C36.9683 7.2705 36.3005 6.0602 35.1497 5.30025C34.1551 4.65288 33.0043 4.46993 31.9103 4.76547L31.9814 14.673C31.9814 17.5862 34.1409 20.0067 36.9683 20.443V8.64967ZM3.11147 12.8435L2.94098 13.3642C4.57486 12.2524 6.72021 12.2102 8.43933 13.3079C11.9344 15.5737 16.1115 16.3899 20.2175 15.6159C24.224 14.87 27.7333 12.6746 30.1486 9.4237L30.0776 4.76547L24.6644 2.95003C20.6153 1.58492 16.3672 1.44419 12.3748 2.5419C8.35409 3.63961 5.79671 5.60986 4.73114 8.39635C4.88742 8.31191 5.04371 8.24155 5.2142 8.17118C7.01857 7.39716 9.07868 7.43938 10.8546 8.25562C12.8863 9.19853 15.3442 8.69189 16.8218 7.03125L17.0492 6.77794C17.3759 6.39796 17.9584 6.36981 18.3278 6.6935C18.7114 7.01718 18.7399 7.59418 18.4131 7.96008L18.1858 8.2134C16.1683 10.4651 12.8437 11.1547 10.0874 9.88811C8.78032 9.28296 7.27431 9.25482 5.93879 9.81775C4.60327 10.3807 3.58032 11.4925 3.11147 12.8435ZM4.13442 25.5516C2.7989 25.9456 1.81858 27.17 1.81858 28.6195C1.81858 30.0972 2.81311 31.3216 4.17704 31.6875C4.14863 31.2794 4.13442 30.8572 4.13442 30.435V25.5516ZM21.4677 45.9718C25.6021 45.9718 29.495 44.3675 32.4218 41.4684C35.3486 38.5693 36.954 34.7132 36.9683 30.6039V22.2444C33.1464 21.8081 30.1628 18.5713 30.1628 14.6589V12.2102C27.6054 14.8841 24.2808 16.6855 20.5726 17.3891C16.012 18.2617 11.3519 17.3469 7.45901 14.8278C6.99015 14.5182 6.47868 14.3634 5.9672 14.3212V30.435C5.9672 34.5725 7.57267 38.4567 10.4994 41.398C13.4262 44.3534 17.3333 45.9718 21.4677 45.9718ZM38.7726 30.6181C38.7726 30.9839 38.7726 31.3357 38.7442 31.7016C40.0939 31.3216 41.0885 30.0832 41.0885 28.6336C41.0885 27.1841 40.1081 25.9597 38.7726 25.5657V30.6179V30.6181ZM13.2131 28.1257C12.9005 27.8161 12.4743 27.6472 12.0338 27.6472C11.5934 27.6472 11.1814 27.8302 10.8688 28.1257C10.5136 28.4776 9.93112 28.4776 9.57593 28.1257C9.22074 27.7739 9.22074 27.1969 9.57593 26.8451C10.2295 26.1836 11.1104 25.8318 12.0338 25.8318C12.9573 25.8318 13.8382 26.1977 14.4918 26.8451C14.847 27.1969 14.847 27.7739 14.4918 28.1257C14.3213 28.3087 14.0797 28.3931 13.8524 28.3931C13.6251 28.3931 13.3978 28.2946 13.2131 28.1257ZM28.4153 28.1398C28.0601 27.788 28.0601 27.211 28.4153 26.8592C29.765 25.5222 31.9672 25.5222 33.3311 26.8592C33.6863 27.211 33.6863 27.788 33.3311 28.1398C33.1606 28.3228 32.9191 28.4072 32.6918 28.4072C32.4644 28.4072 32.2371 28.3087 32.0524 28.1398C31.4131 27.4924 30.3617 27.4924 29.7082 28.1398C29.353 28.4916 28.7705 28.4916 28.4153 28.1398ZM30.859 35.7534C25.6732 40.8901 17.2339 40.8901 12.0339 35.7534C11.6787 35.4016 11.0962 35.4016 10.741 35.7534C10.3858 36.1052 10.3858 36.6822 10.741 37.0341C13.6962 39.9613 17.5606 41.4108 21.4393 41.4108C25.318 41.4108 29.1825 39.9472 32.1377 37.0341C32.4929 36.6822 32.4929 36.1052 32.1377 35.7534C31.7967 35.4016 31.2142 35.4016 30.859 35.7534Z"
        fill="#784D8D"/>
</svg>
