<svg fill="none" height="18" viewBox="0 0 19 18" width="19" xmlns="http://www.w3.org/2000/svg">
  <path clip-rule="evenodd"
        d="M17.039 8.16243L14.6492 12.2058L14.4092 16.113L3.02481 9.69363L6.36919 7.53724L8.7596 3.49324C10.0796 1.26064 13.0034 0.495016 15.2888 1.78502C17.5754 3.07382 18.359 5.92923 17.039 8.16243ZM7.22299 15.4308C6.36559 14.9472 6.0716 13.8768 6.5666 13.0392L9.67159 14.79C9.17659 15.6276 8.08039 15.9138 7.22299 15.4308ZM15.887 0.773432C13.0292 -0.837568 9.37459 0.118216 7.72459 2.91002L5.33479 6.95342L0.875 9.82983L5.5322 12.456C4.7072 13.8516 5.19619 15.636 6.62539 16.4412C8.05459 17.2476 9.88159 16.7694 10.7066 15.3738L15.3632 18L15.6842 12.789L18.074 8.74562C19.724 5.95442 18.7448 2.38563 15.887 0.773432Z"
        fill="black" fill-rule="evenodd"/>
</svg>
