<svg fill="none" height="18" viewBox="0 0 19 18" width="19" xmlns="http://www.w3.org/2000/svg">
  <path clip-rule="evenodd"
        d="M8.44625 13.7574C4.90812 13.7574 2.03995 10.9384 2.03995 7.45547C2.03995 3.9725 4.90812 1.14788 8.44625 1.14788C11.9844 1.14788 14.8531 3.9725 14.8531 7.45547C14.8531 10.9384 11.9844 13.7574 8.44625 13.7574ZM18.6995 17.021L14.0538 12.4464C15.2699 11.1241 16.0175 9.37982 16.0175 7.45547C16.0175 3.33667 12.6279 0 8.44625 0C4.26462 0 0.875 3.33667 0.875 7.45547C0.875 11.5686 4.26462 14.9053 8.44625 14.9053C10.253 14.9053 11.9101 14.2808 13.2118 13.2398L17.876 17.8312C18.1038 18.0563 18.4722 18.0563 18.6995 17.8312C18.9273 17.6118 18.9273 17.246 18.6995 17.021Z"
        fill="black" fill-rule="evenodd"/>
</svg>
