<svg width="42" height="42" viewBox="0 0 42 42" fill="none" xmlns="http://www.w3.org/2000/svg">
  <path
    d="M35.8477 6.15234C31.8855 2.18203 26.6109 0 21 0C15.3891 0 10.1145 2.18203 6.15234 6.15234C2.19023 10.1227 0 15.3891 0 21C0 26.6109 2.18203 31.8855 6.15234 35.8477C10.1227 39.8098 15.3891 42 21 42C26.6109 42 31.8855 39.818 35.8477 35.8477C39.8098 31.8773 42 26.6109 42 21C42 15.3891 39.818 10.1145 35.8477 6.15234ZM21 40.3266C10.3441 40.3266 1.67344 31.6559 1.67344 21C1.67344 10.3441 10.3441 1.67344 21 1.67344C31.6559 1.67344 40.3266 10.3441 40.3266 21C40.3266 31.6559 31.6559 40.3266 21 40.3266Z"
    fill="white"/>
  <path
    d="M21 3.29767C11.2383 3.29767 3.29765 11.2383 3.29765 21C3.29765 30.7617 11.2383 38.7024 21 38.7024C30.7617 38.7024 38.7023 30.7617 38.7023 21C38.7023 11.2383 30.7617 3.29767 21 3.29767ZM29.7281 34.4367L28.3336 32.025C28.1039 31.6231 27.5871 31.4918 27.1933 31.7215C26.7914 31.9512 26.6601 32.468 26.8898 32.8617L28.2844 35.2734C26.332 36.2742 24.15 36.8813 21.8449 37.0043V34.2152C21.8449 33.7559 21.4676 33.3785 21.0082 33.3785C20.5488 33.3785 20.1715 33.7559 20.1715 34.2152V37.0043C17.8664 36.8813 15.6844 36.2742 13.732 35.2734L15.1266 32.8617C15.3562 32.4598 15.2168 31.9512 14.823 31.7215C14.4211 31.4918 13.9125 31.6313 13.6828 32.025L12.2883 34.4367C10.4098 33.2145 8.80194 31.6067 7.57147 29.7199L9.98319 28.3254C10.3851 28.0957 10.5164 27.5789 10.2867 27.1852C10.057 26.7832 9.54022 26.652 9.14647 26.8817L6.73475 28.2762C5.73397 26.3238 5.12694 24.1418 5.0039 21.8367H7.79296C8.25233 21.8367 8.62968 21.4594 8.62968 21C8.62968 20.5406 8.25233 20.1633 7.79296 20.1633H5.0039C5.12694 17.8582 5.73397 15.6762 6.73475 13.7238L9.14647 15.1184C9.27772 15.1922 9.42538 15.2332 9.56483 15.2332C9.85194 15.2332 10.1391 15.0856 10.2867 14.8149C10.5164 14.4129 10.3769 13.9043 9.98319 13.6746L7.57147 12.2801C8.79374 10.4016 10.4016 8.79376 12.2883 7.56329L13.6828 9.97501C13.8387 10.2457 14.1176 10.3934 14.4047 10.3934C14.5441 10.3934 14.6918 10.3606 14.823 10.2785C15.225 10.0488 15.3562 9.53204 15.1266 9.13829L13.732 6.72657C15.6844 5.72579 17.8664 5.11876 20.1715 4.99572V7.78478C20.1715 8.24415 20.5488 8.6215 21.0082 8.6215C21.4676 8.6215 21.8449 8.24415 21.8449 7.78478V4.99572C24.15 5.11876 26.332 5.72579 28.2844 6.72657L26.8898 9.13829C26.6601 9.54025 26.7996 10.0488 27.1933 10.2785C27.3246 10.3524 27.4723 10.3934 27.6117 10.3934C27.8988 10.3934 28.1859 10.2457 28.3336 9.97501L29.7281 7.56329C31.6066 8.78556 33.2144 10.3934 34.4449 12.2801L32.0332 13.6746C31.6312 13.9043 31.5 14.4211 31.7297 14.8149C31.8855 15.0856 32.1644 15.2332 32.4516 15.2332C32.591 15.2332 32.7387 15.2004 32.8699 15.1184L35.2816 13.7238C36.2824 15.6762 36.8894 17.8582 37.0125 20.1633H34.2234C33.7641 20.1633 33.3867 20.5406 33.3867 21C33.3867 21.4594 33.7641 21.8367 34.2234 21.8367H37.0125C36.8894 24.1418 36.2824 26.3238 35.2816 28.2762L32.8699 26.8817C32.468 26.652 31.9594 26.7914 31.7297 27.1852C31.5 27.5871 31.6394 28.0957 32.0332 28.3254L34.4449 29.7199C33.2144 31.6067 31.6066 33.2145 29.7281 34.4367Z"
    fill="white"/>
  <path
    d="M21.8368 18.6703V13.3055C21.8368 12.8461 21.4594 12.4688 21 12.4688C20.5407 12.4688 20.1633 12.8461 20.1633 13.3055V18.6703C19.2118 19.0148 18.5227 19.9254 18.5227 21C18.5227 21.607 18.7442 22.1648 19.1133 22.5996L17.7844 24.8965C17.5547 25.2984 17.6942 25.807 18.0879 26.0367C18.2192 26.1105 18.3668 26.1516 18.5063 26.1516C18.7934 26.1516 19.0805 26.0039 19.2282 25.7332L20.5571 23.4363C20.6965 23.4609 20.8442 23.4773 21 23.4773C22.3617 23.4773 23.4774 22.3699 23.4774 21C23.4774 19.9254 22.7883 19.0148 21.8368 18.6703ZM21 21.8039C20.5571 21.8039 20.1961 21.443 20.1961 21C20.1961 20.557 20.5571 20.1961 21 20.1961C21.443 20.1961 21.8039 20.557 21.8039 21C21.8039 21.443 21.443 21.8039 21 21.8039Z"
    fill="white"/>
  <path
    d="M21 11.7141C21.4593 11.7141 21.8367 11.3367 21.8367 10.8773V10.541C21.8367 10.0816 21.4593 9.70428 21 9.70428C20.5406 9.70428 20.1632 10.0816 20.1632 10.541V10.8773C20.1632 11.3367 20.5406 11.7141 21 11.7141Z"
    fill="white"/>
</svg>
