<svg fill="none" height="24" viewBox="0 0 24 24" width="24" xmlns="http://www.w3.org/2000/svg">
  <path
    d="M20.9083 14.7144C20.487 14.78 20.0915 14.4957 20.0246 14.0799L19.3832 10.0312C18.8569 6.6055 16.3496 3.80028 12.9713 2.85753C12.6641 1.00156 10.8905 -0.256935 9.00996 0.046305C7.15425 0.345542 5.88314 2.0559 6.15136 3.89285C3.23952 5.71179 1.70222 9.06495 2.24119 12.4246L2.92821 16.734C2.99108 17.1493 2.70511 17.5372 2.2853 17.6062C1.00608 17.7874 0.0432365 18.8487 0.00013945 20.1237C-0.0145643 21.5388 1.13537 22.6972 2.56923 22.7123C2.57836 22.7123 2.58698 22.7123 2.5961 22.7123C2.73148 22.7123 2.86635 22.7017 3.0002 22.6817L5.6636 22.2684C6.58994 23.9007 8.68192 24.4827 10.3363 23.5684C11.2099 23.0855 11.8265 22.2499 12.0237 21.2811L21.8062 19.7619C23.2224 19.5422 24.1903 18.2312 23.9682 16.8336C23.9459 16.693 23.9114 16.5544 23.8658 16.4198C23.4287 15.2183 22.1825 14.5002 20.9083 14.7144ZM7.91276 3.04518C8.09529 2.40117 8.64186 1.92179 9.31114 1.81821C9.40139 1.8042 9.49265 1.79719 9.58392 1.79669C10.164 1.79969 10.7044 2.08792 11.0249 2.5653H10.9833C10.6603 2.55579 10.3374 2.5648 10.0159 2.59282C9.67721 2.62485 9.34054 2.67589 9.00794 2.74644C8.93594 2.76095 8.86495 2.78147 8.79397 2.79848C8.52119 2.86153 8.25399 2.93609 7.99186 3.02416C7.96549 3.03117 7.93862 3.03567 7.91276 3.04518ZM8.65353 22.2929C8.28695 22.2934 7.92949 22.1773 7.63491 21.9617L10.058 21.5869C9.73197 22.0307 9.20922 22.2934 8.65353 22.2929ZM22.1414 17.6753C22.0091 17.8899 21.7875 18.0361 21.5355 18.0751L11.1126 19.6924L6.04793 20.479L2.73351 20.9914C2.48253 21.0319 2.22598 20.9599 2.03432 20.7947C1.83861 20.6301 1.72706 20.3879 1.73061 20.1337C1.76813 19.6959 2.1124 19.3441 2.55453 19.2915C3.91741 19.0759 4.8478 17.8144 4.63738 16.4683L3.95138 12.1589C3.50216 9.31614 4.90053 6.49891 7.45238 5.10731C7.4676 5.10231 7.4823 5.0968 7.4965 5.0903C8.32447 4.64745 9.23559 4.37623 10.1736 4.29267C10.458 4.26815 10.7435 4.26264 11.0284 4.27665L11.1704 4.28366C11.4655 4.30117 11.7585 4.3377 12.0486 4.39275C12.0582 4.39275 12.0668 4.39275 12.0764 4.39275C15.0045 5.01774 17.2329 7.3691 17.6699 10.2939L18.3154 14.3426C18.5299 15.6902 19.8106 16.6114 21.176 16.3998C21.6126 16.3157 22.0486 16.5454 22.2215 16.9497C22.3062 17.1914 22.2768 17.4576 22.1414 17.6753Z"
    fill="#A1A1A1"/>
</svg>
