{
  "extends": "../../tslint.json",
  "rules": {
    "directive-selector": [
      true,
      "attribute",
      "es",
      "camelCase"
    ],
    "component-selector": [
      true,
      "element",
      "es",
      "kebab-case"
    ]
  },
  "linterOptions": {
    "exclude": [
      "!**/*"
    ]
  }
}
